Creation of an end-to-end machine learning pipeline with {tidymodels}
…
Predict cupper_points (a score from 0 to 10) based on the following variables:

Aromatic and flavor characteristics (aroma, flavor, aftertaste, etc.).

Grain characteristics (species, color, etc.).

Environmental characteristics (country, altitude, etc.).

Data import

coffee_raw <- read_csv("data_coffee.csv")
coffee_raw

# A tibble: 1,339 × 13
  cupper_points aroma flavor aftertaste acidity sweetness species
          <dbl> <dbl>  <dbl>      <dbl>   <dbl>     <dbl> <chr>  
1          8.75  8.67   8.83       8.67    8.75        10 Arabica
2          8.58  8.75   8.67       8.5     8.58        10 Arabica
3          9.25  8.42   8.5        8.42    8.42        10 Arabica
4          8.67  8.17   8.58       8.42    8.42        10 Arabica
5          8.58  8.25   8.5        8.25    8.5         10 Arabica
6          8.33  8.58   8.42       8.42    8.5         10 Arabica
# ℹ 1,333 more rows
# ℹ 6 more variables: country_of_origin <chr>, variety <chr>,
#   processing_method <chr>, color <chr>, altitude <dbl>, unit <chr>
…
Data cleaning

coffee <-
  coffee_raw %>% 
  filter(if_all(cupper_points:acidity, ~ . > 4)) %>% 
  mutate(across(where(is.character), as_factor),
         altitude = if_else(unit == "ft", altitude * 0.3048, altitude),
         altitude = if_else(altitude > 8000, NA, altitude))
coffee

# A tibble: 1,338 × 13
  cupper_points aroma flavor aftertaste acidity sweetness species
          <dbl> <dbl>  <dbl>      <dbl>   <dbl>     <dbl> <fct>  
1          8.75  8.67   8.83       8.67    8.75        10 Arabica
2          8.58  8.75   8.67       8.5     8.58        10 Arabica
3          9.25  8.42   8.5        8.42    8.42        10 Arabica
4          8.67  8.17   8.58       8.42    8.42        10 Arabica
5          8.58  8.25   8.5        8.25    8.5         10 Arabica
6          8.33  8.58   8.42       8.42    8.5         10 Arabica
# ℹ 1,332 more rows
# ℹ 6 more variables: country_of_origin <fct>, variety <fct>,
#   processing_method <fct>, color <fct>, altitude <dbl>, unit <fct>
…
Coefficients:
   (Intercept)           aroma          flavor  speciesRobusta  
        0.2299          0.1467          0.8192          0.1508  

How to use {parsnip}?

Prediction

linear_reg(mode = "regression", engine = "lm") %>% 
  fit(cupper_points ~ aroma + flavor + species, data = coffee) %>% 
  predict(coffee)

# A tibble: 1,338 × 1
  .pred
  <dbl>
1  8.74
2  8.62
3  8.43
4  8.46
5  8.40
6  8.39
# ℹ 1,332 more rows

How to use {parsnip}?

Add prediction

linear_reg(mode = "regression", engine = "lm") %>% 
  fit(cupper_points ~ aroma + flavor + species, data = coffee) %>% 
  augment(coffee)

# A tibble: 1,338 × 15
  .pred  .resid cupper_points aroma flavor aftertaste acidity sweetness species
  <dbl>   <dbl>         <dbl> <dbl>  <dbl>      <dbl>   <dbl>     <dbl> <fct>  
1  8.74  0.0150          8.75  8.67   8.83       8.67    8.75        10 Arabica
2  8.62 -0.0357          8.58  8.75   8.67       8.5     8.58        10 Arabica
3  8.43  0.822           9.25  8.42   8.5        8.42    8.42        10 Arabica
4  8.46  0.213           8.67  8.17   8.58       8.42    8.42        10 Arabica
5  8.40  0.177           8.58  8.25   8.5        8.25    8.5         10 Arabica
6  8.39 -0.0559          8.33  8.58   8.42       8.42    8.5         10 Arabica
# ℹ 1,332 more rows
# ℹ 6 more variables: country_of_origin <fct>, variety <fct>,
#   processing_method <fct>, color <fct>, altitude <dbl>, unit <fct>
…
Change the model

Linear regression
Random forest
XGBoost
Elastic net

linear_reg(mode = "regression", engine = "lm") %>% 
  fit(cupper_points ~ aroma + flavor + species, data = coffee) %>% 
  predict(coffee)

# A tibble: 1,338 × 1
  .pred
  <dbl>
1  8.74
2  8.62
3  8.43
4  8.46
5  8.40
6  8.39
# ℹ 1,332 more rows

rand_forest(mode = "regression", engine = "ranger") %>% 
  fit(cupper_points ~ aroma + flavor + species, data = coffee) %>% 
  predict(coffee)

# A tibble: 1,338 × 1
  .pred
  <dbl>
1  8.20
2  8.20
3  8.17
4  8.15
5  8.15
6  8.10
# ℹ 1,332 more rows

boost_tree(mode = "regression", engine = "xgboost") %>%
  fit(cupper_points ~ aroma + flavor + species, data = coffee) %>%
  predict(coffee)

# A tibble: 1,338 × 1
  .pred
  <dbl>
1  8.51
2  8.51
3  8.58
4  8.52
5  8.52
6  8.32
# ℹ 1,332 more rows

linear_reg(mode = "regression", engine = "glmnet", 
           penalty = 0.1, mixture = 0.5) %>% 
  fit(cupper_points ~ aroma + flavor + species, data = coffee) %>% 
  predict(coffee)

# A tibble: 1,338 × 1
  .pred
  <dbl>
1  8.46
2  8.37
3  8.22
4  8.23
5  8.20
6  8.20
# ℹ 1,332 more rows
…
<Training/Testing/Total>
<1003/335/1338>

Training and testing sets

Training set
Testing set

cf_train <- training(cf_split)
cf_train

# A tibble: 1,003 × 13
  cupper_points aroma flavor aftertaste acidity sweetness species
          <dbl> <dbl>  <dbl>      <dbl>   <dbl>     <dbl> <fct>  
1          8.58  8.75   8.67       8.5     8.58     10    Arabica
2          9.25  8.42   8.5        8.42    8.42     10    Arabica
3          8.67  8.17   8.58       8.42    8.42     10    Arabica
4          8.58  8.25   8.5        8.25    8.5      10    Arabica
5          8.33  8.58   8.42       8.42    8.5      10    Arabica
6          9     8.25   8.33       8.5     8.42      9.33 Arabica
# ℹ 997 more rows
# ℹ 6 more variables: country_of_origin <fct>, variety <fct>,
#   processing_method <fct>, color <fct>, altitude <dbl>, unit <fct>

cf_test <- testing(cf_split)
cf_test

# A tibble: 335 × 13
  cupper_points aroma flavor aftertaste acidity sweetness species
          <dbl> <dbl>  <dbl>      <dbl>   <dbl>     <dbl> <fct>  
1          8.75  8.67   8.83       8.67    8.75     10    Arabica
2          8.5   8.42   8.5        8.33    8.5      10    Arabica
3          8.58  8.33   8.42       8.08    8.25     10    Arabica
4          8.5   8.25   8.33       8.5     8.25      9.33 Arabica
5          8.17  8      8.25       8.08    8.5      10    Arabica
6          8.33  8.08   8.25       8       8.17     10    Arabica
# ℹ 329 more rows
# ℹ 6 more variables: country_of_origin <fct>, variety <fct>,
#   processing_method <fct>, color <fct>, altitude <dbl>, unit <fct>
…
Cross-validation sets

first_resample <- cf_cv$splits[[1]]
analysis(first_resample) # analysis set for training

# A tibble: 902 × 13
  cupper_points aroma flavor aftertaste acidity sweetness species
          <dbl> <dbl>  <dbl>      <dbl>   <dbl>     <dbl> <fct>  
1          8.58  8.75   8.67       8.5     8.58     10    Arabica
2          8.67  8.17   8.58       8.42    8.42     10    Arabica
3          8.58  8.25   8.5        8.25    8.5      10    Arabica
4          9     8.25   8.33       8.5     8.42      9.33 Arabica
5          8.67  8.67   8.67       8.58    8.42      9.33 Arabica
6          8.5   8.08   8.58       8.5     8.5      10    Arabica
# ℹ 896 more rows
# ℹ 6 more variables: country_of_origin <fct>, variety <fct>,
#   processing_method <fct>, color <fct>, altitude <dbl>, unit <fct>

assessment(first_resample) # assessment set for testing (complementary)

# A tibble: 101 × 13
  cupper_points aroma flavor aftertaste acidity sweetness species
          <dbl> <dbl>  <dbl>      <dbl>   <dbl>     <dbl> <fct>  
1          9.25  8.42   8.5        8.42    8.42        10 Arabica
2          8.33  8.58   8.42       8.42    8.5         10 Arabica
3          8.42  8.17   7.83       8       8.08        10 Arabica
4          8     8      8          8       8.08        10 Arabica
5          7.92  7.83   8          8       7.75        10 Arabica
6          8.08  7.75   7.83       7.83    8.17        10 Arabica
# ℹ 95 more rows
# ℹ 6 more variables: country_of_origin <fct>, variety <fct>,
#   processing_method <fct>, color <fct>, altitude <dbl>, unit <fct>
…
── Operations 

• Centering and scaling for: aroma, flavor, aftertaste, ... | Trained

Numerical variables preprocessing

Apply therecipe on cf_train.

recipe(cupper_points ~ ., data = cf_train) %>% 
  step_normalize(all_numeric_predictors()) %>% 
  prep() %>% 
  bake(new_data = NULL)

# A tibble: 1,003 × 13
  aroma flavor aftertaste acidity sweetness species country_of_origin variety
  <dbl>  <dbl>      <dbl>   <dbl>     <dbl> <fct>   <fct>             <fct>  
1  3.74   3.44       3.17    3.26     0.259 Arabica Ethiopia          Other  
2  2.70   2.93       2.94    2.75     0.259 Arabica Guatemala         Bourbon
3  1.90   3.17       2.94    2.75     0.259 Arabica Ethiopia          <NA>   
4  2.16   2.93       2.44    3.00     0.259 Arabica Ethiopia          Other  
5  3.20   2.68       2.94    3.00     0.259 Arabica Brazil            <NA>   
6  2.16   2.41       3.17    2.75    -1.05  Arabica Ethiopia          <NA>   
# ℹ 997 more rows
# ℹ 5 more variables: processing_method <fct>, color <fct>, altitude <dbl>,
#   unit <fct>, cupper_points <dbl>
…
• Novel factor level assignment for: species, ... | Trained

• Dummy variables from: species, country_of_origin, variety, ... | Trained

Categorical variables preprocessing

recipe(cupper_points ~ ., data = cf_train) %>% 
  step_unknown(all_nominal_predictors()) %>% 
  step_novel(all_nominal_predictors()) %>%
  step_dummy(all_nominal_predictors()) %>% 
  prep() %>% 
  bake(new_data = NULL) %>% 
  select(starts_with(c("species", "color")))

# A tibble: 1,003 × 8
  species_Robusta species_unknown species_new color_Bluish.Green color_None
            <dbl>           <dbl>       <dbl>              <dbl>      <dbl>
1               0               0           0                  0          0
2               0               0           0                  0          0
3               0               0           0                  0          0
4               0               0           0                  0          0
5               0               0           0                  1          0
6               0               0           0                  0          0
# ℹ 997 more rows
# ℹ 3 more variables: color_Blue.Green <dbl>, color_unknown <dbl>,
#   color_new <dbl>
…
• Linear regression imputation for: altitude | Trained

• Dummy variables from: species, country_of_origin, variety, ... | Trained

• Median imputation for: aroma, flavor, aftertaste, acidity, ... | Trained

• Zero variance filter removed: species_new and color_new | Trained

• Centering and scaling for: aroma, flavor, aftertaste, ... | Trained

cf_rec %>% 
  prep() %>% 
  bake(new_data = NULL)

# A tibble: 1,003 × 37
  aroma flavor aftertaste acidity sweetness altitude unit  cupper_points
  <dbl>  <dbl>      <dbl>   <dbl>     <dbl>    <dbl> <fct>         <dbl>
1  3.74   3.44       3.17    3.26     0.259    1.58  m              8.58
2  2.70   2.93       2.94    2.75     0.259    0.924 m              9.25
3  1.90   3.17       2.94    2.75     0.259    1.45  m              8.67
4  2.16   2.93       2.44    3.00     0.259    1.58  m              8.58
5  3.20   2.68       2.94    3.00     0.259   -0.431 m              8.33
6  2.16   2.41       3.17    2.75    -1.05     0.811 m              9   
# ℹ 997 more rows
# ℹ 29 more variables: species_Robusta <dbl>,
#   country_of_origin_Guatemala <dbl>, country_of_origin_Brazil <dbl>,
#   country_of_origin_United.States..Hawaii. <dbl>,
#   country_of_origin_Indonesia <dbl>, country_of_origin_China <dbl>,
#   country_of_origin_Costa.Rica <dbl>, country_of_origin_Mexico <dbl>,
#   country_of_origin_Uganda <dbl>, country_of_origin_Honduras <dbl>, …
…
...
and 28 more lines.

Workflow use

workflow(preprocessor = cf_rec, 
         spec = linear_reg()) %>% 
  fit(cf_train) %>% 
  predict(cf_train)

# A tibble: 1,003 × 1
  .pred
  <dbl>
1  8.63
2  8.52
3  8.55
4  8.43
5  8.53
6  8.56
# ℹ 997 more rows

Workflow use

workflow(preprocessor = cf_rec, 
         spec = linear_reg()) %>% 
  fit(cf_train) %>% 
  augment(cf_test) # predict() + bind_cols() works too

# A tibble: 335 × 15
  .pred  .resid cupper_points aroma flavor aftertaste acidity sweetness species
  <dbl>   <dbl>         <dbl> <dbl>  <dbl>      <dbl>   <dbl>     <dbl> <fct>  
1  8.78 -0.0309          8.75  8.67   8.83       8.67    8.75     10    Arabica
2  8.55 -0.0467          8.5   8.42   8.5        8.33    8.5      10    Arabica
3  8.35  0.229           8.58  8.33   8.42       8.08    8.25     10    Arabica
4  8.54 -0.0360          8.5   8.25   8.33       8.5     8.25      9.33 Arabica
5  8.29 -0.115           8.17  8      8.25       8.08    8.5      10    Arabica
6  8.21  0.124           8.33  8.08   8.25       8       8.17     10    Arabica
# ℹ 329 more rows
# ℹ 6 more variables: country_of_origin <fct>, variety <fct>,
#   processing_method <fct>, color <fct>, altitude <dbl>, unit <fct>
…
library(finetune)
wkf_en_tune <- 
  workflow(preprocessor = cf_rec, 
           spec = linear_reg(penalty = tune(), mixture = tune(),
                             engine = "glmnet")) 
set.seed(456)
res_race <- tune_race_anova(wkf_en_tune, resamples = cf_cv, grid = 10,
                            control = control_race(verbose = FALSE,
                                                   verbose_elim = FALSE))

res_race

# Tuning results
# 10-fold cross-validation 
# A tibble: 25 × 5
  splits            id     .order .metrics          .notes          
  <list>            <chr>   <int> <list>            <list>          
1 <split [902/101]> Fold01      2 <tibble [20 × 6]> <tibble [0 × 3]>
2 <split [902/101]> Fold02      3 <tibble [20 × 6]> <tibble [0 × 3]>
3 <split [903/100]> Fold07      1 <tibble [20 × 6]> <tibble [0 × 3]>
4 <split [903/100]> Fold09      4 <tibble [18 × 6]> <tibble [0 × 3]>
5 <split [902/101]> Fold03      8 <tibble [2 × 6]>  <tibble [0 × 3]>
6 <split [903/100]> Fold04     10 <tibble [2 × 6]>  <tibble [0 × 3]>
# ℹ 19 more rows
…
